{
  "images" : [
    {
      "idiom" : "universal",
      "filename" : "aba2@1x.jpg.jpg",
      "scale" : "1x"
    },
    {
      "idiom" : "universal",
      "filename" : "aba2@2x.jpg.jpg",
      "scale" : "2x"
    },
    {
      "idiom" : "universal",
      "filename" : "aba2@3x.jpg.jpg",
      "scale" : "3x"
    },
    {
      "idiom" : "ipad",
      "filename" : "aba2 copy@2x.jpg.jpg",
      "scale" : "1x"
    },
    {
      "idiom" : "ipad",
      "filename" : "aba2 copy@3x.jpg.jpg",
      "scale" : "2x"
    }
  ],
  "info" : {
    "version" : 1,
    "author" : "xcode"
  }
}