{
  "images" : [
    {
      "idiom" : "iphone",
      "scale" : "1x",
      "filename" : "icon_unit_write.png"
    },
    {
      "idiom" : "iphone",
      "scale" : "2x",
      "filename" : "icon_unit_write@2x.png"
    },
    {
      "idiom" : "iphone",
      "scale" : "3x",
      "filename" : "icon_unit_write@3x.png"
    },
    {
      "idiom" : "ipad",
      "scale" : "1x",
      "filename" : "icon_unit_write~ipad.png"
    },
    {
      "idiom" : "ipad",
      "scale" : "2x",
      "filename" : "icon_unit_write@2x~ipad.png"
    }
  ],
  "info" : {
    "version" : 1,
    "author" : "xcode"
  }
}